%YAML 1.1
%TAG !u! tag:unity3d.com,2011:
--- !u!21 &2100000
Material:
  serializedVersion: 6
  m_ObjectHideFlags: 0
  m_CorrespondingSourceObject: {fileID: 0}
  m_PrefabInstance: {fileID: 0}
  m_PrefabAsset: {fileID: 0}
  m_Name: Fire04_clip_offs3
  m_Shader: {fileID: 4800000, guid: 258c4f040f2b0484a8196e2b4fdeb0fa, type: 3}
  m_ShaderKeywords: 
  m_LightmapFlags: 5
  m_EnableInstancingVariants: 0
  m_DoubleSidedGI: 0
  m_CustomRenderQueue: 2450
  stringTagMap: {}
  disabledShaderPasses: []
  m_SavedProperties:
    serializedVersion: 3
    m_TexEnvs:
    - _MainTex:
        m_Texture: {fileID: 2800000, guid: 688f5b35b748720419283319c305b78d, type: 3}
        m_Scale: {x: 1, y: 1}
        m_Offset: {x: 0, y: 0}
    m_Floats:
    - _AlphaClipMultiplier: 1
    - _AlphaClipOffset: 0.3
    - _Cutoff: 0.5
    - _IntensityMultiplier: 2
    - _InvFade: 1
    m_Colors:
    - _TintColor: {r: 0.5019608, g: 0.5019608, b: 0.5019608, a: 1}
